MainV1.2/simulation/qsim/ADC_tutorial.msim.vcd
$comment
	File created using the following command:
		vcd file ADC_tutorial.msim.vcd -direction
$end
$date
	Thu Nov 21 14:57:44 2024
$end
$version
	ModelSim Version 10.1d
$end
$timescale
	1ps
$end
$scope module contador_10_vlg_vec_tst $end
$var reg 1 ! clk $end
$var reg 1 " inicio_contador $end
$var reg 1 # reset $end
$var wire 1 $ fin_contador $end
$var wire 1 % sampler $end
$scope module i1 $end
$var wire 1 & gnd $end
$var wire 1 ' vcc $end
$var wire 1 ( unknown $end
$var tri1 1 ) devclrn $end
$var tri1 1 * devpor $end
$var tri1 1 + devoe $end
$var wire 1 , contador[3]~1_combout $end
$var wire 1 - fin_contador~output_o $end
$var wire 1 . clk~input_o $end
$var wire 1 / clk~inputclkctrl_outclk $end
$var wire 1 0 inicio_contador~input_o $end
$var wire 1 1 reset~input_o $end
$var wire 1 2 contador[0]~0_combout $end
$var wire 1 3 contador[3]~2_combout $end
$var wire 1 4 contador[1]~4_combout $end
$var wire 1 5 Add0~1_combout $end
$var wire 1 6 contador[2]~5_combout $end
$var wire 1 7 Add0~0_combout $end
$var wire 1 8 contador[3]~3_combout $end
$var wire 1 9 fin_contador~0_combout $end
$var wire 1 : contando~0_combout $end
$var wire 1 ; contando~q $end
$var wire 1 < fin_contador~1_combout $end
$var wire 1 = fin_contador~reg0_q $end
$var wire 1 > contador [3] $end
$var wire 1 ? contador [2] $end
$var wire 1 @ contador [1] $end
$var wire 1 A contador [0] $end
$upscope $end
$upscope $end
$enddefinitions $end
#0
$dumpvars
0!
0"
0#
0$
x%
0&
1'
x(
1)
1*
1+
1,
0-
0.
0/
00
01
12
13
04
05
06
07
08
09
0:
0;
0<
0=
0A
0@
0?
0>
$end
#5000
1!
1.
1/
0%
#10000
0!
0.
0/
1%
#15000
1!
1.
1/
0%
#20000
0!
0.
0/
1%
#25000
1!
1.
1/
0%
#30000
0!
0.
0/
1%
#35000
1!
1.
1/
0%
#40000
0!
0.
0/
1%
#45000
1!
1.
1/
0%
#50000
0!
0.
0/
1%
#55000
1!
1.
1/
0%
#60000
0!
0.
0/
1%
#65000
1!
1.
1/
0%
#70000
0!
0.
0/
1%
#75000
1!
1.
1/
0%
#80000
0!
0.
0/
1%
#85000
1!
1.
1/
0%
#90000
0!
0.
0/
1%
#95000
1!
1.
1/
0%
#100000
0!
0.
0/
1%
#105000
1!
1.
1/
0%
#110000
0!
0.
0/
1%
#115000
1!
1.
1/
0%
#120000
0!
0.
0/
1%
#125000
1!
1.
1/
0%
#130000
0!
0.
0/
1%
#135000
1!
1.
1/
0%
#140000
0!
0.
0/
1%
#145000
1!
1.
1/
0%
#150000
0!
0.
0/
1%
#155000
1!
1.
1/
0%
#160000
0!
0.
0/
1%
#165000
1!
1.
1/
0%
#170000
0!
0.
0/
1%
#175000
1!
1.
1/
0%
#180000
0!
0.
0/
1%
#185000
1!
1.
1/
0%
#190000
0!
0.
0/
1%
#195000
1!
1.
1/
0%
#200000
0!
0.
0/
1%
#205000
1!
1.
1/
0%
#210000
0!
0.
0/
1%
#215000
1!
1.
1/
0%
#220000
0!
0.
0/
1%
#225000
1!
1.
1/
0%
#230000
0!
0.
0/
1%
#235000
1!
1.
1/
0%
#240000
0!
0.
0/
1%
#245000
1!
1.
1/
0%
#250000
1"
0!
10
0.
0/
1%
1:
03
0,
#255000
1!
1.
1/
0%
1;
1A
1,
14
02
#260000
0!
0.
0/
1%
#265000
1!
1.
1/
0%
1@
0A
12
#270000
0!
0.
0/
1%
#275000
1!
1.
1/
0%
1A
15
04
02
16
#280000
0!
0.
0/
1%
#285000
1!
1.
1/
0%
1?
0@
0A
12
#290000
0!
0.
0/
1%
#295000
1!
1.
1/
0%
1A
14
02
#300000
0!
0.
0/
1%
#305000
1!
1.
1/
0%
1@
0A
12
#310000
0!
0.
0/
1%
#315000
1!
1.
1/
0%
1A
17
05
04
02
18
06
#320000
0!
0.
0/
1%
#325000
1!
1.
1/
0%
1>
0?
0@
0A
12
#330000
0!
0.
0/
1%
#335000
1!
1.
1/
0%
1A
14
02
#340000
0!
0.
0/
1%
#345000
1!
1.
1/
0%
1@
0A
19
12
1<
0:
13
#350000
0!
0.
0/
1%
#355000
1!
1.
1/
0%
0;
1=
0<
1:
03
0,
1-
1$
08
04
#360000
0!
0.
0/
1%
#365000
1!
1.
1/
0%
1;
0>
0@
1A
0=
1<
0:
13
1,
09
07
0-
0$
02
0<
1:
03
14
#370000
0!
0.
0/
1%
#375000
1!
1.
1/
0%
1@
0A
12
#380000
0!
0.
0/
1%
#385000
1!
1.
1/
0%
1A
15
04
02
16
#390000
0!
0.
0/
1%
#395000
1!
1.
1/
0%
1?
0@
0A
12
#400000
0!
0.
0/
1%
#405000
1!
1.
1/
0%
1A
14
02
#410000
0!
0.
0/
1%
#415000
1!
1.
1/
0%
1@
0A
12
#420000
0!
0.
0/
1%
#425000
1!
1.
1/
0%
1A
17
05
04
02
18
06
#430000
0!
0.
0/
1%
#435000
1!
1.
1/
0%
1>
0?
0@
0A
12
#440000
0!
0.
0/
1%
#445000
1!
1.
1/
0%
1A
14
02
#450000
0!
0.
0/
1%
#455000
1!
1.
1/
0%
1@
0A
19
12
1<
0:
13
#460000
0!
0.
0/
1%
#465000
1!
1.
1/
0%
0;
1=
0<
1:
03
0,
1-
1$
08
04
#470000
0!
0.
0/
1%
#475000
1!
1.
1/
0%
1;
0>
0@
1A
0=
1<
0:
13
1,
09
07
0-
0$
02
0<
1:
03
14
#480000
0!
0.
0/
1%
#485000
1!
1.
1/
0%
1@
0A
12
#490000
0!
0.
0/
1%
#495000
1!
1.
1/
0%
1A
15
04
02
16
#500000
0"
0!
00
0.
0/
1%
#505000
1!
1.
1/
0%
1?
0@
0A
12
#510000
0!
0.
0/
1%
#515000
1!
1.
1/
0%
1A
14
02
#520000
0!
0.
0/
1%
#525000
1!
1.
1/
0%
1@
0A
12
#530000
0!
0.
0/
1%
#535000
1!
1.
1/
0%
1A
17
05
04
02
18
06
#540000
0!
0.
0/
1%
#545000
1!
1.
1/
0%
1>
0?
0@
0A
12
#550000
0!
0.
0/
1%
#555000
1!
1.
1/
0%
1A
14
02
#560000
0!
0.
0/
1%
#565000
1!
1.
1/
0%
1@
0A
19
12
1<
0:
13
#570000
0!
0.
0/
1%
#575000
1!
1.
1/
0%
0;
1=
0<
1-
1$
#580000
0!
0.
0/
1%
#585000
1!
1.
1/
0%
0=
0-
0$
#590000
0!
0.
0/
1%
#595000
1!
1.
1/
0%
#600000
0!
0.
0/
1%
#605000
1!
1.
1/
0%
#610000
0!
0.
0/
1%
#615000
1!
1.
1/
0%
#620000
0!
0.
0/
1%
#625000
1!
1.
1/
0%
#630000
0!
0.
0/
1%
#635000
1!
1.
1/
0%
#640000
0!
0.
0/
1%
#645000
1!
1.
1/
0%
#650000
0!
0.
0/
1%
#655000
1!
1.
1/
0%
#660000
0!
0.
0/
1%
#665000
1!
1.
1/
0%
#670000
0!
0.
0/
1%
#675000
1!
1.
1/
0%
#680000
0!
0.
0/
1%
#685000
1!
1.
1/
0%
#690000
0!
0.
0/
1%
#695000
1!
1.
1/
0%
#700000
0!
0.
0/
1%
#705000
1!
1.
1/
0%
#710000
0!
0.
0/
1%
#715000
1!
1.
1/
0%
#720000
0!
0.
0/
1%
#725000
1!
1.
1/
0%
#730000
0!
0.
0/
1%
#735000
1!
1.
1/
0%
#740000
0!
0.
0/
1%
#745000
1!
1.
1/
0%
#750000
1"
0!
10
0.
0/
1%
1:
03
0,
08
04
#755000
1!
1.
1/
0%
1;
0>
0@
1A
1<
0:
13
1,
09
07
02
0<
1:
03
14
#760000
0!
0.
0/
1%
#765000
1!
1.
1/
0%
1@
0A
12
#770000
0!
0.
0/
1%
#775000
1!
1.
1/
0%
1A
15
04
02
16
#780000
0!
0.
0/
1%
#785000
1!
1.
1/
0%
1?
0@
0A
12
#790000
0!
0.
0/
1%
#795000
1!
1.
1/
0%
1A
14
02
#800000
0!
0.
0/
1%
#805000
1!
1.
1/
0%
1@
0A
12
#810000
0!
0.
0/
1%
#815000
1!
1.
1/
0%
1A
17
05
04
02
18
06
#820000
0!
0.
0/
1%
#825000
1!
1.
1/
0%
1>
0?
0@
0A
12
#830000
0!
0.
0/
1%
#835000
1!
1.
1/
0%
1A
14
02
#840000
0!
0.
0/
1%
#845000
1!
1.
1/
0%
1@
0A
19
12
1<
0:
13
#850000
0!
0.
0/
1%
#855000
1!
1.
1/
0%
0;
1=
0<
1:
03
0,
1-
1$
08
04
#860000
0!
0.
0/
1%
#865000
1!
1.
1/
0%
1;
0>
0@
1A
0=
1<
0:
13
1,
09
07
0-
0$
02
0<
1:
03
14
#870000
0!
0.
0/
1%
#875000
1!
1.
1/
0%
1@
0A
12
#880000
0!
0.
0/
1%
#885000
1!
1.
1/
0%
1A
15
04
02
16
#890000
0!
0.
0/
1%
#895000
1!
1.
1/
0%
1?
0@
0A
12
#900000
0!
0.
0/
1%
#905000
1!
1.
1/
0%
1A
14
02
#910000
0!
0.
0/
1%
#915000
1!
1.
1/
0%
1@
0A
12
#920000
0!
0.
0/
1%
#925000
1!
1.
1/
0%
1A
17
05
04
02
18
06
#930000
0!
0.
0/
1%
#935000
1!
1.
1/
0%
1>
0?
0@
0A
12
#940000
0!
0.
0/
1%
#945000
1!
1.
1/
0%
1A
14
02
#950000
0!
0.
0/
1%
#955000
1!
1.
1/
0%
1@
0A
19
12
1<
0:
13
#960000
0!
0.
0/
1%
#965000
1!
1.
1/
0%
0;
1=
0<
1:
03
0,
1-
1$
08
04
#970000
0!
0.
0/
1%
#975000
1!
1.
1/
0%
1;
0>
0@
1A
0=
1<
0:
13
1,
09
07
0-
0$
02
0<
1:
03
14
#980000
0!
0.
0/
1%
#985000
1!
1.
1/
0%
1@
0A
12
#990000
0!
0.
0/
1%
#995000
1!
1.
1/
0%
1A
15
04
02
16
