MainV1.2/simulation/qsim/ADC_tutorial.msim.vcd
$comment
	File created using the following command:
		vcd file ADC_tutorial.msim.vcd -direction
$end
$date
	Tue Nov 26 22:49:58 2024
$end
$version
	ModelSim Version 10.1d
$end
$timescale
	1ps
$end
$scope module floodfill_para_simular_vlg_vec_tst $end
$var reg 1 ! clk $end
$var reg 1 " reset $end
$var wire 1 # Dir_Min2 [1] $end
$var wire 1 $ Dir_Min2 [0] $end
$var wire 1 % Dir_Min3 [1] $end
$var wire 1 & Dir_Min3 [0] $end
$var wire 1 ' Dir_Min4 [1] $end
$var wire 1 ( Dir_Min4 [0] $end
$var wire 1 ) Dir_Min5 [1] $end
$var wire 1 * Dir_Min5 [0] $end
$var wire 1 + Dir_Min6 [1] $end
$var wire 1 , Dir_Min6 [0] $end
$var wire 1 - Dir_Min7 [1] $end
$var wire 1 . Dir_Min7 [0] $end
$var wire 1 / Dir_Min8 [1] $end
$var wire 1 0 Dir_Min8 [0] $end
$var wire 1 1 Dir_Min9 [1] $end
$var wire 1 2 Dir_Min9 [0] $end
$var wire 1 3 Dir_Min12 [1] $end
$var wire 1 4 Dir_Min12 [0] $end
$var wire 1 5 Dir_Min13 [1] $end
$var wire 1 6 Dir_Min13 [0] $end
$var wire 1 7 Dir_Min14 [1] $end
$var wire 1 8 Dir_Min14 [0] $end
$var wire 1 9 Dir_Min15 [1] $end
$var wire 1 : Dir_Min15 [0] $end
$var wire 1 ; Dir_Min_1_ [1] $end
$var wire 1 < Dir_Min_1_ [0] $end
$var wire 1 = Dir_Min_10_ [1] $end
$var wire 1 > Dir_Min_10_ [0] $end
$var wire 1 ? Dir_Min_11_ [1] $end
$var wire 1 @ Dir_Min_11_ [0] $end
$var wire 1 A Mi_Peso2 [3] $end
$var wire 1 B Mi_Peso2 [2] $end
$var wire 1 C Mi_Peso2 [1] $end
$var wire 1 D Mi_Peso2 [0] $end
$var wire 1 E Mi_Peso3 [3] $end
$var wire 1 F Mi_Peso3 [2] $end
$var wire 1 G Mi_Peso3 [1] $end
$var wire 1 H Mi_Peso3 [0] $end
$var wire 1 I Mi_Peso4 [3] $end
$var wire 1 J Mi_Peso4 [2] $end
$var wire 1 K Mi_Peso4 [1] $end
$var wire 1 L Mi_Peso4 [0] $end
$var wire 1 M Mi_Peso5 [3] $end
$var wire 1 N Mi_Peso5 [2] $end
$var wire 1 O Mi_Peso5 [1] $end
$var wire 1 P Mi_Peso5 [0] $end
$var wire 1 Q Mi_Peso6 [3] $end
$var wire 1 R Mi_Peso6 [2] $end
$var wire 1 S Mi_Peso6 [1] $end
$var wire 1 T Mi_Peso6 [0] $end
$var wire 1 U Mi_Peso7 [3] $end
$var wire 1 V Mi_Peso7 [2] $end
$var wire 1 W Mi_Peso7 [1] $end
$var wire 1 X Mi_Peso7 [0] $end
$var wire 1 Y Mi_Peso8 [3] $end
$var wire 1 Z Mi_Peso8 [2] $end
$var wire 1 [ Mi_Peso8 [1] $end
$var wire 1 \ Mi_Peso8 [0] $end
$var wire 1 ] Mi_Peso9 [3] $end
$var wire 1 ^ Mi_Peso9 [2] $end
$var wire 1 _ Mi_Peso9 [1] $end
$var wire 1 ` Mi_Peso9 [0] $end
$var wire 1 a Mi_Peso12 [3] $end
$var wire 1 b Mi_Peso12 [2] $end
$var wire 1 c Mi_Peso12 [1] $end
$var wire 1 d Mi_Peso12 [0] $end
$var wire 1 e Mi_Peso13 [3] $end
$var wire 1 f Mi_Peso13 [2] $end
$var wire 1 g Mi_Peso13 [1] $end
$var wire 1 h Mi_Peso13 [0] $end
$var wire 1 i Mi_Peso14 [3] $end
$var wire 1 j Mi_Peso14 [2] $end
$var wire 1 k Mi_Peso14 [1] $end
$var wire 1 l Mi_Peso14 [0] $end
$var wire 1 m Mi_Peso15 [3] $end
$var wire 1 n Mi_Peso15 [2] $end
$var wire 1 o Mi_Peso15 [1] $end
$var wire 1 p Mi_Peso15 [0] $end
$var wire 1 q Mi_Peso115 [3] $end
$var wire 1 r Mi_Peso115 [2] $end
$var wire 1 s Mi_Peso115 [1] $end
$var wire 1 t Mi_Peso115 [0] $end
$var wire 1 u Mi_Peso_1_ [3] $end
$var wire 1 v Mi_Peso_1_ [2] $end
$var wire 1 w Mi_Peso_1_ [1] $end
$var wire 1 x Mi_Peso_1_ [0] $end
$var wire 1 y Mi_Peso_10_ [3] $end
$var wire 1 z Mi_Peso_10_ [2] $end
$var wire 1 { Mi_Peso_10_ [1] $end
$var wire 1 | Mi_Peso_10_ [0] $end
$var wire 1 } Mi_Peso_11_ [3] $end
$var wire 1 ~ Mi_Peso_11_ [2] $end
$var wire 1 !! Mi_Peso_11_ [1] $end
$var wire 1 "! Mi_Peso_11_ [0] $end
$var wire 1 #! sampler $end
$scope module i1 $end
$var wire 1 $! gnd $end
$var wire 1 %! vcc $end
$var wire 1 &! unknown $end
$var tri1 1 '! devclrn $end
$var tri1 1 (! devpor $end
$var tri1 1 )! devoe $end
$var wire 1 *! inst278|C~0_combout $end
$var wire 1 +! inst264|min_value~7_combout $end
$var wire 1 ,! clk~input_o $end
$var wire 1 -! clk~inputclkctrl_outclk $end
$var wire 1 .! Dir_Min12[1]~output_o $end
$var wire 1 /! Dir_Min12[0]~output_o $end
$var wire 1 0! Dir_Min13[1]~output_o $end
$var wire 1 1! Dir_Min13[0]~output_o $end
$var wire 1 2! Dir_Min14[1]~output_o $end
$var wire 1 3! Dir_Min14[0]~output_o $end
$var wire 1 4! Dir_Min15[1]~output_o $end
$var wire 1 5! Dir_Min15[0]~output_o $end
$var wire 1 6! Dir_Min2[1]~output_o $end
$var wire 1 7! Dir_Min2[0]~output_o $end
$var wire 1 8! Dir_Min3[1]~output_o $end
$var wire 1 9! Dir_Min3[0]~output_o $end
$var wire 1 :! Dir_Min4[1]~output_o $end
$var wire 1 ;! Dir_Min4[0]~output_o $end
$var wire 1 <! Dir_Min5[1]~output_o $end
$var wire 1 =! Dir_Min5[0]~output_o $end
$var wire 1 >! Dir_Min6[1]~output_o $end
$var wire 1 ?! Dir_Min6[0]~output_o $end
$var wire 1 @! Dir_Min7[1]~output_o $end
$var wire 1 A! Dir_Min7[0]~output_o $end
$var wire 1 B! Dir_Min8[1]~output_o $end
$var wire 1 C! Dir_Min8[0]~output_o $end
$var wire 1 D! Dir_Min9[1]~output_o $end
$var wire 1 E! Dir_Min9[0]~output_o $end
$var wire 1 F! Dir_Min_10_[1]~output_o $end
$var wire 1 G! Dir_Min_10_[0]~output_o $end
$var wire 1 H! Dir_Min_11_[1]~output_o $end
$var wire 1 I! Dir_Min_11_[0]~output_o $end
$var wire 1 J! Dir_Min_1_[1]~output_o $end
$var wire 1 K! Dir_Min_1_[0]~output_o $end
$var wire 1 L! Mi_Peso115[3]~output_o $end
$var wire 1 M! Mi_Peso115[2]~output_o $end
$var wire 1 N! Mi_Peso115[1]~output_o $end
$var wire 1 O! Mi_Peso115[0]~output_o $end
$var wire 1 P! Mi_Peso12[3]~output_o $end
$var wire 1 Q! Mi_Peso12[2]~output_o $end
$var wire 1 R! Mi_Peso12[1]~output_o $end
$var wire 1 S! Mi_Peso12[0]~output_o $end
$var wire 1 T! Mi_Peso13[3]~output_o $end
$var wire 1 U! Mi_Peso13[2]~output_o $end
$var wire 1 V! Mi_Peso13[1]~output_o $end
$var wire 1 W! Mi_Peso13[0]~output_o $end
$var wire 1 X! Mi_Peso14[3]~output_o $end
$var wire 1 Y! Mi_Peso14[2]~output_o $end
$var wire 1 Z! Mi_Peso14[1]~output_o $end
$var wire 1 [! Mi_Peso14[0]~output_o $end
$var wire 1 \! Mi_Peso15[3]~output_o $end
$var wire 1 ]! Mi_Peso15[2]~output_o $end
$var wire 1 ^! Mi_Peso15[1]~output_o $end
$var wire 1 _! Mi_Peso15[0]~output_o $end
$var wire 1 `! Mi_Peso2[3]~output_o $end
$var wire 1 a! Mi_Peso2[2]~output_o $end
$var wire 1 b! Mi_Peso2[1]~output_o $end
$var wire 1 c! Mi_Peso2[0]~output_o $end
$var wire 1 d! Mi_Peso3[3]~output_o $end
$var wire 1 e! Mi_Peso3[2]~output_o $end
$var wire 1 f! Mi_Peso3[1]~output_o $end
$var wire 1 g! Mi_Peso3[0]~output_o $end
$var wire 1 h! Mi_Peso4[3]~output_o $end
$var wire 1 i! Mi_Peso4[2]~output_o $end
$var wire 1 j! Mi_Peso4[1]~output_o $end
$var wire 1 k! Mi_Peso4[0]~output_o $end
$var wire 1 l! Mi_Peso5[3]~output_o $end
$var wire 1 m! Mi_Peso5[2]~output_o $end
$var wire 1 n! Mi_Peso5[1]~output_o $end
$var wire 1 o! Mi_Peso5[0]~output_o $end
$var wire 1 p! Mi_Peso6[3]~output_o $end
$var wire 1 q! Mi_Peso6[2]~output_o $end
$var wire 1 r! Mi_Peso6[1]~output_o $end
$var wire 1 s! Mi_Peso6[0]~output_o $end
$var wire 1 t! Mi_Peso7[3]~output_o $end
$var wire 1 u! Mi_Peso7[2]~output_o $end
$var wire 1 v! Mi_Peso7[1]~output_o $end
$var wire 1 w! Mi_Peso7[0]~output_o $end
$var wire 1 x! Mi_Peso8[3]~output_o $end
$var wire 1 y! Mi_Peso8[2]~output_o $end
$var wire 1 z! Mi_Peso8[1]~output_o $end
$var wire 1 {! Mi_Peso8[0]~output_o $end
$var wire 1 |! Mi_Peso9[3]~output_o $end
$var wire 1 }! Mi_Peso9[2]~output_o $end
$var wire 1 ~! Mi_Peso9[1]~output_o $end
$var wire 1 !" Mi_Peso9[0]~output_o $end
$var wire 1 "" Mi_Peso_10_[3]~output_o $end
$var wire 1 #" Mi_Peso_10_[2]~output_o $end
$var wire 1 $" Mi_Peso_10_[1]~output_o $end
$var wire 1 %" Mi_Peso_10_[0]~output_o $end
$var wire 1 &" Mi_Peso_11_[3]~output_o $end
$var wire 1 '" Mi_Peso_11_[2]~output_o $end
$var wire 1 (" Mi_Peso_11_[1]~output_o $end
$var wire 1 )" Mi_Peso_11_[0]~output_o $end
$var wire 1 *" Mi_Peso_1_[3]~output_o $end
$var wire 1 +" Mi_Peso_1_[2]~output_o $end
$var wire 1 ," Mi_Peso_1_[1]~output_o $end
$var wire 1 -" Mi_Peso_1_[0]~output_o $end
$var wire 1 ." reset~input_o $end
$var wire 1 /" reset~inputclkctrl_outclk $end
$var wire 1 0" inst313|Q[0]~0_combout $end
$var wire 1 1" inst406|C~0_combout $end
$var wire 1 2" inst344|LessThan0~0_combout $end
$var wire 1 3" inst344|LessThan0~1_combout $end
$var wire 1 4" inst344|min_value~1_combout $end
$var wire 1 5" inst280|min_value~4_combout $end
$var wire 1 6" inst280|LessThan1~2_combout $end
$var wire 1 7" inst280|LessThan1~3_combout $end
$var wire 1 8" inst280|LessThan1~4_combout $end
$var wire 1 9" inst278|C~1_combout $end
$var wire 1 :" inst344|min_value~0_combout $end
$var wire 1 ;" inst328|LessThan2~2_combout $end
$var wire 1 <" inst328|LessThan2~3_combout $end
$var wire 1 =" inst326|C~0_combout $end
$var wire 1 >" inst344|min_value~2_combout $end
$var wire 1 ?" inst344|LessThan1~0_combout $end
$var wire 1 @" inst344|LessThan1~1_combout $end
$var wire 1 A" inst342|C~2_combout $end
$var wire 1 B" inst342|C~3_combout $end
$var wire 1 C" inst280|LessThan0~0_combout $end
$var wire 1 D" inst280|LessThan0~1_combout $end
$var wire 1 E" inst280|LessThan0~2_combout $end
$var wire 1 F" inst280|min_value~2_combout $end
$var wire 1 G" inst183|menor[0]~0_combout $end
$var wire 1 H" inst168|LessThan2~3_combout $end
$var wire 1 I" inst243|LessThan0~0_combout $end
$var wire 1 J" inst243|min_value~1_combout $end
$var wire 1 K" inst243|min_value~0_combout $end
$var wire 1 L" inst243|min_value~3_combout $end
$var wire 1 M" inst328|LessThan0~1_combout $end
$var wire 1 N" inst243|LessThan2~2_combout $end
$var wire 1 O" inst243|menor[0]~0_combout $end
$var wire 1 P" inst243|LessThan2~3_combout $end
$var wire 1 Q" inst241|C~0_combout $end
$var wire 1 R" inst260|Q[0]~0_combout $end
$var wire 1 S" inst168|menor[0]~0_combout $end
$var wire 1 T" inst377|Q[0]~feeder_combout $end
$var wire 1 U" inst228|min_value~0_combout $end
$var wire 1 V" inst228|menor[0]~0_combout $end
$var wire 1 W" inst166|C~0_combout $end
$var wire 1 X" inst183|min_value~0_combout $end
$var wire 1 Y" inst181|C~0_combout $end
$var wire 1 Z" inst198|LessThan1~0_combout $end
$var wire 1 [" inst198|LessThan1~1_combout $end
$var wire 1 \" inst198|LessThan1~2_combout $end
$var wire 1 ]" inst198|min_value~4_combout $end
$var wire 1 ^" inst198|min_value~2_combout $end
$var wire 1 _" inst198|LessThan2~2_combout $end
$var wire 1 `" inst198|LessThan2~3_combout $end
$var wire 1 a" inst198|LessThan2~4_combout $end
$var wire 1 b" inst198|menor[0]~0_combout $end
$var wire 1 c" inst264|LessThan0~0_combout $end
$var wire 1 d" inst264|LessThan0~1_combout $end
$var wire 1 e" inst264|min_value~4_combout $end
$var wire 1 f" inst264|LessThan1~0_combout $end
$var wire 1 g" inst264|min_value~2_combout $end
$var wire 1 h" inst264|LessThan1~1_combout $end
$var wire 1 i" inst264|LessThan1~2_combout $end
$var wire 1 j" inst264|LessThan1~3_combout $end
$var wire 1 k" inst264|LessThan1~4_combout $end
$var wire 1 l" inst264|min_value~5_combout $end
$var wire 1 m" inst211|C~0_combout $end
$var wire 1 n" inst196|C~0_combout $end
$var wire 1 o" inst211|C~1_combout $end
$var wire 1 p" inst278|C~2_combout $end
$var wire 1 q" inst213|LessThan1~0_combout $end
$var wire 1 r" inst213|LessThan1~1_combout $end
$var wire 1 s" inst213|LessThan1~2_combout $end
$var wire 1 t" inst213|min_value~0_combout $end
$var wire 1 u" inst259|Q[0]~feeder_combout $end
$var wire 1 v" inst280|min_value~3_combout $end
$var wire 1 w" inst280|min_value~5_combout $end
$var wire 1 x" inst281|Q[0]~feeder_combout $end
$var wire 1 y" inst264|LessThan2~3_combout $end
$var wire 1 z" inst264|LessThan2~0_combout $end
$var wire 1 {" inst264|LessThan2~1_combout $end
$var wire 1 |" inst264|LessThan2~2_combout $end
$var wire 1 }" inst264|LessThan2~4_combout $end
$var wire 1 ~" inst264|menor[0]~0_combout $end
$var wire 1 !# inst328|LessThan0~0_combout $end
$var wire 1 "# inst328|min_value~1_combout $end
$var wire 1 ## inst328|min_value~3_combout $end
$var wire 1 $# inst328|menor[0]~0_combout $end
$var wire 1 %# inst344|min_value~3_combout $end
$var wire 1 &# inst393|Q[0]~0_combout $end
$var wire 1 '# inst408|LessThan1~2_combout $end
$var wire 1 (# inst408|LessThan1~3_combout $end
$var wire 1 )# inst408|min_value~0_combout $end
$var wire 1 *# inst409|Q[0]~feeder_combout $end
$var wire 1 +# inst392|min_value~0_combout $end
$var wire 1 ,# inst392|menor[0]~0_combout $end
$var wire 1 -# inst328|min_value~0_combout $end
$var wire 1 .# inst328|min_value~2_combout $end
$var wire 1 /# inst392|pos[0]~0_combout $end
$var wire 1 0# inst312|LessThan0~0_combout $end
$var wire 1 1# inst312|menor[0]~0_combout $end
$var wire 1 2# inst243|min_value~2_combout $end
$var wire 1 3# inst256|Q[0]~feeder_combout $end
$var wire 1 4# inst183|LessThan1~0_combout $end
$var wire 1 5# inst183|LessThan1~1_combout $end
$var wire 1 6# inst183|min_value~1_combout $end
$var wire 1 7# inst198|min_value~3_combout $end
$var wire 1 8# inst264|min_value~3_combout $end
$var wire 1 9# inst264|min_value~6_combout $end
$var wire 1 :# inst264|menor[1]~1_combout $end
$var wire 1 ;# inst264|menor[2]~2_combout $end
$var wire 1 <# inst262|C~0_combout $end
$var wire 1 =# inst196|C~1_combout $end
$var wire 1 ># inst183|min_value~2_combout $end
$var wire 1 ?# inst183|LessThan2~0_combout $end
$var wire 1 @# inst183|LessThan2~1_combout $end
$var wire 1 A# inst181|C~1_combout $end
$var wire 1 B# inst168|LessThan2~2_combout $end
$var wire 1 C# inst168|LessThan2~4_combout $end
$var wire 1 D# inst183|pos[1]~4_combout $end
$var wire 1 E# inst183|pos[0]~5_combout $end
$var wire 1 F# inst198|pos[1]~8_combout $end
$var wire 1 G# inst198|pos[0]~9_combout $end
$var wire 1 H# inst392|LessThan2~0_combout $end
$var wire 1 I# inst392|pos[0]~1_combout $end
$var wire 1 J# inst408|LessThan1~4_combout $end
$var wire 1 K# inst312|LessThan2~0_combout $end
$var wire 1 L# inst328|LessThan1~0_combout $end
$var wire 1 M# inst328|pos[1]~2_combout $end
$var wire 1 N# inst328|pos[0]~3_combout $end
$var wire 1 O# inst344|min_pos~2_combout $end
$var wire 1 P# inst228|pos[1]~8_combout $end
$var wire 1 Q# inst228|LessThan2~0_combout $end
$var wire 1 R# inst243|LessThan1~0_combout $end
$var wire 1 S# inst243|pos[1]~2_combout $end
$var wire 1 T# inst243|pos[0]~3_combout $end
$var wire 1 U# inst264|pos[1]~0_combout $end
$var wire 1 V# inst264|pos[0]~1_combout $end
$var wire 1 W# inst280|min_pos~4_combout $end
$var wire 1 X# inst376|LessThan1~0_combout $end
$var wire 1 Y# inst211|S [3] $end
$var wire 1 Z# inst211|S [2] $end
$var wire 1 [# inst211|S [1] $end
$var wire 1 \# inst211|S [0] $end
$var wire 1 ]# inst406|S [3] $end
$var wire 1 ^# inst406|S [2] $end
$var wire 1 _# inst406|S [1] $end
$var wire 1 `# inst406|S [0] $end
$var wire 1 a# inst260|Q [3] $end
$var wire 1 b# inst260|Q [2] $end
$var wire 1 c# inst260|Q [1] $end
$var wire 1 d# inst260|Q [0] $end
$var wire 1 e# inst258|Q [3] $end
$var wire 1 f# inst258|Q [2] $end
$var wire 1 g# inst258|Q [1] $end
$var wire 1 h# inst258|Q [0] $end
$var wire 1 i# inst262|S [3] $end
$var wire 1 j# inst262|S [2] $end
$var wire 1 k# inst262|S [1] $end
$var wire 1 l# inst262|S [0] $end
$var wire 1 m# inst196|S [3] $end
$var wire 1 n# inst196|S [2] $end
$var wire 1 o# inst196|S [1] $end
$var wire 1 p# inst196|S [0] $end
$var wire 1 q# inst181|S [3] $end
$var wire 1 r# inst181|S [2] $end
$var wire 1 s# inst181|S [1] $end
$var wire 1 t# inst181|S [0] $end
$var wire 1 u# inst257|Q [3] $end
$var wire 1 v# inst257|Q [2] $end
$var wire 1 w# inst257|Q [1] $end
$var wire 1 x# inst257|Q [0] $end
$var wire 1 y# inst265|Q [3] $end
$var wire 1 z# inst265|Q [2] $end
$var wire 1 {# inst265|Q [1] $end
$var wire 1 |# inst265|Q [0] $end
$var wire 1 }# inst345|Q [3] $end
$var wire 1 ~# inst345|Q [2] $end
$var wire 1 !$ inst345|Q [1] $end
$var wire 1 "$ inst345|Q [0] $end
$var wire 1 #$ inst342|S [3] $end
$var wire 1 $$ inst342|S [2] $end
$var wire 1 %$ inst342|S [1] $end
$var wire 1 &$ inst342|S [0] $end
$var wire 1 '$ inst259|Q [3] $end
$var wire 1 ($ inst259|Q [2] $end
$var wire 1 )$ inst259|Q [1] $end
$var wire 1 *$ inst259|Q [0] $end
$var wire 1 +$ inst281|Q [3] $end
$var wire 1 ,$ inst281|Q [2] $end
$var wire 1 -$ inst281|Q [1] $end
$var wire 1 .$ inst281|Q [0] $end
$var wire 1 /$ inst393|Q [3] $end
$var wire 1 0$ inst393|Q [2] $end
$var wire 1 1$ inst393|Q [1] $end
$var wire 1 2$ inst393|Q [0] $end
$var wire 1 3$ inst409|Q [3] $end
$var wire 1 4$ inst409|Q [2] $end
$var wire 1 5$ inst409|Q [1] $end
$var wire 1 6$ inst409|Q [0] $end
$var wire 1 7$ inst278|S [3] $end
$var wire 1 8$ inst278|S [2] $end
$var wire 1 9$ inst278|S [1] $end
$var wire 1 :$ inst278|S [0] $end
$var wire 1 ;$ inst326|S [3] $end
$var wire 1 <$ inst326|S [2] $end
$var wire 1 =$ inst326|S [1] $end
$var wire 1 >$ inst326|S [0] $end
$var wire 1 ?$ inst377|Q [3] $end
$var wire 1 @$ inst377|Q [2] $end
$var wire 1 A$ inst377|Q [1] $end
$var wire 1 B$ inst377|Q [0] $end
$var wire 1 C$ inst329|Q [3] $end
$var wire 1 D$ inst329|Q [2] $end
$var wire 1 E$ inst329|Q [1] $end
$var wire 1 F$ inst329|Q [0] $end
$var wire 1 G$ inst256|Q [3] $end
$var wire 1 H$ inst256|Q [2] $end
$var wire 1 I$ inst256|Q [1] $end
$var wire 1 J$ inst256|Q [0] $end
$var wire 1 K$ inst166|S [3] $end
$var wire 1 L$ inst166|S [2] $end
$var wire 1 M$ inst166|S [1] $end
$var wire 1 N$ inst166|S [0] $end
$var wire 1 O$ inst313|Q [3] $end
$var wire 1 P$ inst313|Q [2] $end
$var wire 1 Q$ inst313|Q [1] $end
$var wire 1 R$ inst313|Q [0] $end
$var wire 1 S$ inst261|Q [3] $end
$var wire 1 T$ inst261|Q [2] $end
$var wire 1 U$ inst261|Q [1] $end
$var wire 1 V$ inst261|Q [0] $end
$var wire 1 W$ inst241|S [3] $end
$var wire 1 X$ inst241|S [2] $end
$var wire 1 Y$ inst241|S [1] $end
$var wire 1 Z$ inst241|S [0] $end
$upscope $end
$upscope $end
$enddefinitions $end
#0
$dumpvars
0!
1"
0$
1#
0&
1%
0(
0'
0*
0)
0,
0+
0.
0-
00
0/
02
01
04
03
06
05
08
07
0:
09
0<
1;
0>
0=
0@
0?
0D
0C
0B
0A
0H
0G
0F
0E
0L
0K
0J
0I
0P
0O
0N
0M
0T
0S
0R
0Q
0X
0W
0V
0U
0\
0[
0Z
0Y
0`
0_
0^
0]
0d
0c
0b
0a
0h
0g
0f
0e
0l
0k
0j
0i
0p
0o
0n
0m
0t
0s
0r
0q
0x
0w
0v
0u
0|
0{
0z
0y
0"!
0!!
0~
0}
x#!
0$!
1%!
x&!
1'!
1(!
1)!
0*!
0+!
0,!
0-!
0.!
0/!
00!
01!
02!
03!
04!
05!
16!
07!
18!
09!
0:!
0;!
0<!
0=!
0>!
0?!
0@!
0A!
0B!
0C!
0D!
0E!
0F!
0G!
0H!
0I!
1J!
0K!
0L!
0M!
0N!
0O!
0P!
0Q!
0R!
0S!
0T!
0U!
0V!
0W!
0X!
0Y!
0Z!
0[!
0\!
0]!
0^!
0_!
0`!
0a!
0b!
0c!
0d!
0e!
0f!
0g!
0h!
0i!
0j!
0k!
0l!
0m!
0n!
0o!
0p!
0q!
0r!
0s!
0t!
0u!
0v!
0w!
0x!
0y!
0z!
0{!
0|!
0}!
0~!
0!"
0""
0#"
0$"
0%"
0&"
0'"
0("
0)"
0*"
0+"
0,"
0-"
1."
1/"
10"
01"
02"
03"
04"
05"
06"
07"
08"
09"
0:"
0;"
0<"
0="
0>"
0?"
0@"
0A"
0B"
0C"
0D"
0E"
0F"
1G"
1H"
0I"
0J"
0K"
0L"
1M"
0N"
1O"
0P"
0Q"
1R"
1S"
1T"
0U"
0V"
0W"
0X"
0Y"
0Z"
0["
0\"
0]"
0^"
0_"
0`"
0a"
1b"
0c"
0d"
0e"
0f"
0g"
0h"
0i"
0j"
0k"
0l"
0m"
0n"
0o"
0p"
0q"
0r"
0s"
1t"
1u"
0v"
1w"
1x"
0y"
0z"
0{"
0|"
0}"
1~"
0!#
0"#
0##
1$#
1%#
1&#
0'#
1(#
1)#
1*#
0+#
0,#
0-#
0.#
1/#
00#
01#
02#
13#
04#
05#
06#
07#
08#
09#
0:#
0;#
0<#
0=#
0>#
0?#
0@#
0A#
0B#
0C#
0D#
0E#
0F#
0G#
0H#
0I#
0J#
0K#
0L#
0M#
0N#
0O#
0P#
0Q#
0R#
0S#
0T#
0U#
0V#
0W#
0X#
z\#
0[#
0Z#
0Y#
z`#
0_#
z^#
z]#
0d#
0c#
zb#
za#
0h#
0g#
0f#
0e#
zl#
0k#
0j#
zi#
zp#
0o#
0n#
0m#
zt#
0s#
0r#
zq#
0x#
0w#
0v#
0u#
0|#
0{#
0z#
0y#
0"$
0!$
0~#
0}#
z&$
0%$
0$$
z#$
0*$
0)$
0($
0'$
0.$
0-$
0,$
0+$
02$
01$
z0$
z/$
06$
05$
04$
z3$
z:$
09$
08$
07$
z>$
0=$
z<$
z;$
0B$
zA$
z@$
z?$
0F$
0E$
0D$
zC$
0J$
0I$
0H$
zG$
zN$
0M$
zL$
zK$
0R$
0Q$
zP$
zO$
0V$
0U$
0T$
zS$
zZ$
0Y$
zX$
zW$
$end
#5000
1!
1,!
1-!
0#!
#10000
0!
0,!
0-!
1#!
#15000
1!
1,!
1-!
0#!
#20000
0!
0,!
0-!
1#!
#25000
1!
1,!
1-!
0#!
#30000
0!
0,!
0-!
1#!
#35000
1!
1,!
1-!
0#!
#40000
0!
0,!
0-!
1#!
#45000
1!
1,!
1-!
0#!
#50000
0!
0,!
0-!
1#!
#55000
1!
1,!
1-!
0#!
#60000
0!
0,!
0-!
1#!
#65000
1!
1,!
1-!
0#!
#70000
0!
0,!
0-!
1#!
#75000
1!
1,!
1-!
0#!
#80000
0!
0,!
0-!
1#!
#85000
1!
1,!
1-!
0#!
#90000
0"
0!
0."
0,!
0/"
0-!
1#!
#95000
1!
1,!
1-!
0#!
1J$
16$
12$
1F$
1|#
1.$
1*$
1V$
1h#
1B$
1d#
1x#
1R$
1"$
1>#
1U"
1>"
0)#
1"#
11#
1+#
1e"
1]"
0t"
1v"
0S"
1J"
1S!
1g!
1c!
1s!
1%"
1)"
1_!
1!"
1[!
1-"
1k!
1{!
1W!
1o!
1w!
1d
1H
1D
1T
1|
1"!
1p
1`
1l
1x
1L
1\
1h
1P
1X
1X#
0G"
1V"
0%#
0*#
1_#
1##
00"
1,#
1l"
0b"
0u"
1[#
0w"
03#
1M$
1L"
1K!
1<
1s#
0R"
1%$
0$#
0&#
0~"
1k#
1o#
0x"
19$
0O"
1=$
1Y$
#100000
0!
0,!
0-!
1#!
#105000
1!
1,!
1-!
0#!
1g#
1w#
0J$
1U$
1Q$
1E$
11$
06$
02$
1!$
0F$
0|#
0.$
0*$
1-$
1{#
0V$
0h#
1c#
1I$
0d#
0x#
15$
1)$
0R$
0"$
18#
1m"
1i"
0[#
17#
12#
1W"
0M$
1K"
0>#
16#
0/#
1-#
11"
0_#
0>"
1)#
0"#
1F"
01#
0e"
0]"
1t"
0v"
14"
1S"
0J"
1Z!
1V!
0S!
1~!
1n!
1r!
1b!
0g!
0c!
1v!
0s!
0%"
0)"
0_!
1("
1$"
0!"
0[!
1z!
1R!
0{!
0W!
1f!
1^!
0o!
0w!
1k
1g
0d
1_
1O
1S
1C
0H
0D
1W
0T
0|
0"!
0p
1!!
1{
0`
0l
1[
1c
0\
0h
1G
1o
0P
0X
1K#
19#
1Z#
0o#
1n"
0Y$
1Q"
1N"
0L"
1G"
0s#
1Y"
11#
1.#
0##
1%#
1*#
01"
1_#
09$
10"
0l"
1b"
1u"
0m"
1[#
1w"
0%$
1A"
13#
0W"
1M$
1=!
1*
0K#
1I#
1:#
1n#
1P"
1O"
0N"
1s#
0Y"
1r#
00"
0=$
1="
1$#
1%$
0A"
1~"
0k#
1o#
0n"
0Z#
1x"
19$
1$$
0=!
17!
0*
1$
1T#
1k#
1Y$
0Q"
0P"
0r#
1=$
0="
0$$
0n#
1E!
12
0T#
0E!
02
#110000
0!
0,!
0-!
1#!
#115000
1!
1,!
1-!
0#!
1J$
16$
1F$
1|#
1.$
1*$
1V$
1h#
1x#
1"$
1>#
1>"
1e"
1]"
1*!
0t"
1v"
0)#
1'#
1S!
1g!
1s!
1%"
1)"
1_!
1!"
1[!
1W!
1w!
1d
1H
1T
1|
1"!
1p
1`
1l
1h
1X
0G"
0%#
1l"
0b"
19"
0u"
1m"
0[#
0w"
0*#
11"
0_#
1)#
1J#
0s#
1Y"
0%$
1A"
0~"
0k#
0o#
1n"
18$
1Z#
0x"
09$
1*#
01"
1_#
19!
1&
1r#
1$$
1j#
1n#
#120000
0!
0,!
0-!
1#!
#125000
1!
1,!
1-!
0#!
0g#
0w#
0!$
0|#
0.$
0*$
1f#
1($
0-$
0{#
0h#
1v#
0x#
1~#
1,$
1z#
0)$
0"$
1?#
0m"
1c"
1[#
1B#
07#
02#
0M$
1I"
0'#
0F"
1;"
0_#
1!#
0]"
1N"
16"
0*!
1t"
12"
0v"
1_"
1o"
0Z#
15"
1z"
1^"
0H"
0(#
1y"
0M"
0Z!
0V!
0v!
0%"
0)"
0_!
1Y!
1]!
0("
0$"
0[!
1U!
0W!
1u!
1'"
1#"
0^!
0w!
0k
0g
0W
0|
0"!
0p
1j
1n
0!!
0{
0l
1f
0h
1V
1~
1z
0o
0X
0o"
1Z#
1o#
0n"
0_"
0Y$
0N"
19$
09"
06"
1b"
17"
1u"
0[#
1w"
1`"
1Y#
1p"
08$
1=#
0n#
12#
1M$
1_#
0Y#
0=#
1n#
0`"
0p"
18$
07"
0o#
1x"
09$
1a"
17$
1m#
1Y$
1N"
18"
0m#
0a"
07$
1I!
1@
08"
1G#
1W#
0I!
13!
1H!
0@
18
1?
0G#
0W#
03!
0H!
08
0?
#130000
0!
0,!
0-!
1#!
#135000
1!
1,!
1-!
0#!
1.$
1*$
1h#
0t"
1)"
1_!
1[!
1"!
1p
1l
0u"
1[#
#140000
0!
0,!
0-!
1#!
#145000
1!
1,!
1-!
0#!
0*$
1)$
0_!
1^!
0p
1o
#150000
0!
0,!
0-!
1#!
#155000
1!
1,!
1-!
0#!
#160000
0!
0,!
0-!
1#!
#165000
1!
1,!
1-!
0#!
#170000
0!
0,!
0-!
1#!
#175000
1!
1,!
1-!
0#!
#180000
0!
0,!
0-!
1#!
#185000
1!
1,!
1-!
0#!
#190000
0!
0,!
0-!
1#!
#195000
1!
1,!
1-!
0#!
#200000
0!
0,!
0-!
1#!
#205000
1!
1,!
1-!
0#!
#210000
0!
0,!
0-!
1#!
