MainV1.2/simulation/qsim/ADC_tutorial.msim.vcd
$comment
	File created using the following command:
		vcd file ADC_tutorial.msim.vcd -direction
$end
$date
	Tue Nov 26 16:03:50 2024
$end
$version
	ModelSim Version 10.1d
$end
$timescale
	1ps
$end
$scope module pared_vlg_vec_tst $end
$var reg 1 ! clk $end
$var reg 4 " data_in [3:0] $end
$var reg 1 # reset $end
$var reg 4 $ sel [3:0] $end
$var wire 1 % data2_out [63] $end
$var wire 1 & data2_out [62] $end
$var wire 1 ' data2_out [61] $end
$var wire 1 ( data2_out [60] $end
$var wire 1 ) data2_out [59] $end
$var wire 1 * data2_out [58] $end
$var wire 1 + data2_out [57] $end
$var wire 1 , data2_out [56] $end
$var wire 1 - data2_out [55] $end
$var wire 1 . data2_out [54] $end
$var wire 1 / data2_out [53] $end
$var wire 1 0 data2_out [52] $end
$var wire 1 1 data2_out [51] $end
$var wire 1 2 data2_out [50] $end
$var wire 1 3 data2_out [49] $end
$var wire 1 4 data2_out [48] $end
$var wire 1 5 data2_out [47] $end
$var wire 1 6 data2_out [46] $end
$var wire 1 7 data2_out [45] $end
$var wire 1 8 data2_out [44] $end
$var wire 1 9 data2_out [43] $end
$var wire 1 : data2_out [42] $end
$var wire 1 ; data2_out [41] $end
$var wire 1 < data2_out [40] $end
$var wire 1 = data2_out [39] $end
$var wire 1 > data2_out [38] $end
$var wire 1 ? data2_out [37] $end
$var wire 1 @ data2_out [36] $end
$var wire 1 A data2_out [35] $end
$var wire 1 B data2_out [34] $end
$var wire 1 C data2_out [33] $end
$var wire 1 D data2_out [32] $end
$var wire 1 E data2_out [31] $end
$var wire 1 F data2_out [30] $end
$var wire 1 G data2_out [29] $end
$var wire 1 H data2_out [28] $end
$var wire 1 I data2_out [27] $end
$var wire 1 J data2_out [26] $end
$var wire 1 K data2_out [25] $end
$var wire 1 L data2_out [24] $end
$var wire 1 M data2_out [23] $end
$var wire 1 N data2_out [22] $end
$var wire 1 O data2_out [21] $end
$var wire 1 P data2_out [20] $end
$var wire 1 Q data2_out [19] $end
$var wire 1 R data2_out [18] $end
$var wire 1 S data2_out [17] $end
$var wire 1 T data2_out [16] $end
$var wire 1 U data2_out [15] $end
$var wire 1 V data2_out [14] $end
$var wire 1 W data2_out [13] $end
$var wire 1 X data2_out [12] $end
$var wire 1 Y data2_out [11] $end
$var wire 1 Z data2_out [10] $end
$var wire 1 [ data2_out [9] $end
$var wire 1 \ data2_out [8] $end
$var wire 1 ] data2_out [7] $end
$var wire 1 ^ data2_out [6] $end
$var wire 1 _ data2_out [5] $end
$var wire 1 ` data2_out [4] $end
$var wire 1 a data2_out [3] $end
$var wire 1 b data2_out [2] $end
$var wire 1 c data2_out [1] $end
$var wire 1 d data2_out [0] $end
$var wire 1 e sampler $end
$scope module i1 $end
$var wire 1 f gnd $end
$var wire 1 g vcc $end
$var wire 1 h unknown $end
$var tri1 1 i devclrn $end
$var tri1 1 j devpor $end
$var tri1 1 k devoe $end
$var wire 1 l sel[0]~input_o $end
$var wire 1 m data2_out[0]~output_o $end
$var wire 1 n data2_out[1]~output_o $end
$var wire 1 o data2_out[2]~output_o $end
$var wire 1 p data2_out[3]~output_o $end
$var wire 1 q data2_out[4]~output_o $end
$var wire 1 r data2_out[5]~output_o $end
$var wire 1 s data2_out[6]~output_o $end
$var wire 1 t data2_out[7]~output_o $end
$var wire 1 u data2_out[8]~output_o $end
$var wire 1 v data2_out[9]~output_o $end
$var wire 1 w data2_out[10]~output_o $end
$var wire 1 x data2_out[11]~output_o $end
$var wire 1 y data2_out[12]~output_o $end
$var wire 1 z data2_out[13]~output_o $end
$var wire 1 { data2_out[14]~output_o $end
$var wire 1 | data2_out[15]~output_o $end
$var wire 1 } data2_out[16]~output_o $end
$var wire 1 ~ data2_out[17]~output_o $end
$var wire 1 !! data2_out[18]~output_o $end
$var wire 1 "! data2_out[19]~output_o $end
$var wire 1 #! data2_out[20]~output_o $end
$var wire 1 $! data2_out[21]~output_o $end
$var wire 1 %! data2_out[22]~output_o $end
$var wire 1 &! data2_out[23]~output_o $end
$var wire 1 '! data2_out[24]~output_o $end
$var wire 1 (! data2_out[25]~output_o $end
$var wire 1 )! data2_out[26]~output_o $end
$var wire 1 *! data2_out[27]~output_o $end
$var wire 1 +! data2_out[28]~output_o $end
$var wire 1 ,! data2_out[29]~output_o $end
$var wire 1 -! data2_out[30]~output_o $end
$var wire 1 .! data2_out[31]~output_o $end
$var wire 1 /! data2_out[32]~output_o $end
$var wire 1 0! data2_out[33]~output_o $end
$var wire 1 1! data2_out[34]~output_o $end
$var wire 1 2! data2_out[35]~output_o $end
$var wire 1 3! data2_out[36]~output_o $end
$var wire 1 4! data2_out[37]~output_o $end
$var wire 1 5! data2_out[38]~output_o $end
$var wire 1 6! data2_out[39]~output_o $end
$var wire 1 7! data2_out[40]~output_o $end
$var wire 1 8! data2_out[41]~output_o $end
$var wire 1 9! data2_out[42]~output_o $end
$var wire 1 :! data2_out[43]~output_o $end
$var wire 1 ;! data2_out[44]~output_o $end
$var wire 1 <! data2_out[45]~output_o $end
$var wire 1 =! data2_out[46]~output_o $end
$var wire 1 >! data2_out[47]~output_o $end
$var wire 1 ?! data2_out[48]~output_o $end
$var wire 1 @! data2_out[49]~output_o $end
$var wire 1 A! data2_out[50]~output_o $end
$var wire 1 B! data2_out[51]~output_o $end
$var wire 1 C! data2_out[52]~output_o $end
$var wire 1 D! data2_out[53]~output_o $end
$var wire 1 E! data2_out[54]~output_o $end
$var wire 1 F! data2_out[55]~output_o $end
$var wire 1 G! data2_out[56]~output_o $end
$var wire 1 H! data2_out[57]~output_o $end
$var wire 1 I! data2_out[58]~output_o $end
$var wire 1 J! data2_out[59]~output_o $end
$var wire 1 K! data2_out[60]~output_o $end
$var wire 1 L! data2_out[61]~output_o $end
$var wire 1 M! data2_out[62]~output_o $end
$var wire 1 N! data2_out[63]~output_o $end
$var wire 1 O! clk~input_o $end
$var wire 1 P! clk~inputclkctrl_outclk $end
$var wire 1 Q! data_in[0]~input_o $end
$var wire 1 R! data2_out[0]~0_combout $end
$var wire 1 S! reset~input_o $end
$var wire 1 T! reset~inputclkctrl_outclk $end
$var wire 1 U! data2_out[0]~reg0_q $end
$var wire 1 V! sel[3]~input_o $end
$var wire 1 W! sel[2]~input_o $end
$var wire 1 X! sel[1]~input_o $end
$var wire 1 Y! Mux63~0_combout $end
$var wire 1 Z! data2_out[1]~1_combout $end
$var wire 1 [! data2_out[1]~reg0_q $end
$var wire 1 \! data_in[2]~input_o $end
$var wire 1 ]! data2_out[2]~2_combout $end
$var wire 1 ^! data2_out[2]~reg0_q $end
$var wire 1 _! data_in[3]~input_o $end
$var wire 1 `! data2_out[3]~3_combout $end
$var wire 1 a! data2_out[3]~reg0_q $end
$var wire 1 b! data2_out[4]~4_combout $end
$var wire 1 c! data2_out[4]~reg0_q $end
$var wire 1 d! data_in[1]~input_o $end
$var wire 1 e! data2_out[5]~5_combout $end
$var wire 1 f! data2_out[5]~reg0_q $end
$var wire 1 g! Mux63~1_combout $end
$var wire 1 h! data2_out[6]~6_combout $end
$var wire 1 i! data2_out[6]~reg0_q $end
$var wire 1 j! data2_out[7]~7_combout $end
$var wire 1 k! data2_out[7]~reg0_q $end
$var wire 1 l! Mux63~2_combout $end
$var wire 1 m! data2_out[8]~8_combout $end
$var wire 1 n! data2_out[8]~reg0_q $end
$var wire 1 o! data2_out[9]~9_combout $end
$var wire 1 p! data2_out[9]~reg0_q $end
$var wire 1 q! data2_out[10]~10_combout $end
$var wire 1 r! data2_out[10]~reg0_q $end
$var wire 1 s! data2_out[11]~11_combout $end
$var wire 1 t! data2_out[11]~reg0_q $end
$var wire 1 u! Mux63~3_combout $end
$var wire 1 v! data2_out[12]~12_combout $end
$var wire 1 w! data2_out[12]~reg0_q $end
$var wire 1 x! data2_out[13]~13_combout $end
$var wire 1 y! data2_out[13]~reg0_q $end
$var wire 1 z! data2_out[14]~14_combout $end
$var wire 1 {! data2_out[14]~reg0_q $end
$var wire 1 |! data2_out[15]~15_combout $end
$var wire 1 }! data2_out[15]~reg0_q $end
$var wire 1 ~! Mux63~4_combout $end
$var wire 1 !" data2_out[16]~16_combout $end
$var wire 1 "" data2_out[16]~reg0_q $end
$var wire 1 #" data2_out[17]~17_combout $end
$var wire 1 $" data2_out[17]~reg0_q $end
$var wire 1 %" data2_out[18]~18_combout $end
$var wire 1 &" data2_out[18]~reg0_q $end
$var wire 1 '" data2_out[19]~19_combout $end
$var wire 1 (" data2_out[19]~reg0_q $end
$var wire 1 )" data2_out[20]~20_combout $end
$var wire 1 *" data2_out[20]~reg0_q $end
$var wire 1 +" Mux63~5_combout $end
$var wire 1 ," data2_out[21]~21_combout $end
$var wire 1 -" data2_out[21]~reg0_q $end
$var wire 1 ." data2_out[22]~22_combout $end
$var wire 1 /" data2_out[22]~reg0_q $end
$var wire 1 0" data2_out[23]~23_combout $end
$var wire 1 1" data2_out[23]~reg0_q $end
$var wire 1 2" Mux63~6_combout $end
$var wire 1 3" data2_out[24]~24_combout $end
$var wire 1 4" data2_out[24]~reg0_q $end
$var wire 1 5" data2_out[25]~25_combout $end
$var wire 1 6" data2_out[25]~reg0_q $end
$var wire 1 7" data2_out[26]~26_combout $end
$var wire 1 8" data2_out[26]~reg0_q $end
$var wire 1 9" data2_out[27]~27_combout $end
$var wire 1 :" data2_out[27]~reg0_q $end
$var wire 1 ;" Mux63~7_combout $end
$var wire 1 <" data2_out[28]~28_combout $end
$var wire 1 =" data2_out[28]~reg0_q $end
$var wire 1 >" data2_out[29]~29_combout $end
$var wire 1 ?" data2_out[29]~reg0_q $end
$var wire 1 @" data2_out[30]~30_combout $end
$var wire 1 A" data2_out[30]~reg0_q $end
$var wire 1 B" data2_out[31]~31_combout $end
$var wire 1 C" data2_out[31]~reg0_q $end
$var wire 1 D" data2_out[32]~32_combout $end
$var wire 1 E" data2_out[32]~reg0_q $end
$var wire 1 F" data2_out[33]~33_combout $end
$var wire 1 G" data2_out[33]~reg0_q $end
$var wire 1 H" Mux63~8_combout $end
$var wire 1 I" data2_out[34]~34_combout $end
$var wire 1 J" data2_out[34]~reg0_q $end
$var wire 1 K" data2_out[35]~35_combout $end
$var wire 1 L" data2_out[35]~reg0_q $end
$var wire 1 M" Mux63~9_combout $end
$var wire 1 N" data2_out[36]~36_combout $end
$var wire 1 O" data2_out[36]~reg0_q $end
$var wire 1 P" data2_out[37]~37_combout $end
$var wire 1 Q" data2_out[37]~reg0_q $end
$var wire 1 R" data2_out[38]~38_combout $end
$var wire 1 S" data2_out[38]~reg0_q $end
$var wire 1 T" data2_out[39]~39_combout $end
$var wire 1 U" data2_out[39]~reg0_q $end
$var wire 1 V" Mux63~10_combout $end
$var wire 1 W" data2_out[40]~40_combout $end
$var wire 1 X" data2_out[40]~reg0_q $end
$var wire 1 Y" data2_out[41]~41_combout $end
$var wire 1 Z" data2_out[41]~reg0_q $end
$var wire 1 [" data2_out[42]~42_combout $end
$var wire 1 \" data2_out[42]~reg0_q $end
$var wire 1 ]" data2_out[43]~43_combout $end
$var wire 1 ^" data2_out[43]~reg0_q $end
$var wire 1 _" Mux63~11_combout $end
$var wire 1 `" data2_out[44]~44_combout $end
$var wire 1 a" data2_out[44]~reg0_q $end
$var wire 1 b" data2_out[45]~45_combout $end
$var wire 1 c" data2_out[45]~reg0_q $end
$var wire 1 d" data2_out[46]~46_combout $end
$var wire 1 e" data2_out[46]~reg0_q $end
$var wire 1 f" data2_out[47]~47_combout $end
$var wire 1 g" data2_out[47]~reg0_q $end
$var wire 1 h" data2_out[48]~48_combout $end
$var wire 1 i" data2_out[48]~reg0_q $end
$var wire 1 j" data2_out[49]~49_combout $end
$var wire 1 k" data2_out[49]~reg0_q $end
$var wire 1 l" Mux63~12_combout $end
$var wire 1 m" data2_out[50]~50_combout $end
$var wire 1 n" data2_out[50]~reg0_q $end
$var wire 1 o" data2_out[51]~51_combout $end
$var wire 1 p" data2_out[51]~reg0_q $end
$var wire 1 q" Mux63~13_combout $end
$var wire 1 r" data2_out[52]~52_combout $end
$var wire 1 s" data2_out[52]~reg0_q $end
$var wire 1 t" data2_out[53]~53_combout $end
$var wire 1 u" data2_out[53]~reg0_q $end
$var wire 1 v" data2_out[54]~54_combout $end
$var wire 1 w" data2_out[54]~reg0_q $end
$var wire 1 x" data2_out[55]~55_combout $end
$var wire 1 y" data2_out[55]~reg0_q $end
$var wire 1 z" Mux63~14_combout $end
$var wire 1 {" data2_out[56]~56_combout $end
$var wire 1 |" data2_out[56]~reg0_q $end
$var wire 1 }" data2_out[57]~57_combout $end
$var wire 1 ~" data2_out[57]~reg0_q $end
$var wire 1 !# data2_out[58]~58_combout $end
$var wire 1 "# data2_out[58]~reg0_q $end
$var wire 1 ## data2_out[59]~59_combout $end
$var wire 1 $# data2_out[59]~reg0_q $end
$var wire 1 %# Mux63~15_combout $end
$var wire 1 &# data2_out[60]~60_combout $end
$var wire 1 '# data2_out[60]~reg0_q $end
$var wire 1 (# data2_out[61]~61_combout $end
$var wire 1 )# data2_out[61]~reg0_q $end
$var wire 1 *# data2_out[62]~62_combout $end
$var wire 1 +# data2_out[62]~reg0_q $end
$var wire 1 ,# data2_out[63]~63_combout $end
$var wire 1 -# data2_out[63]~reg0_q $end
$upscope $end
$upscope $end
$enddefinitions $end
#0
$dumpvars
0!
b1 "
1#
b0 $
0d
0c
0b
0a
0`
0_
0^
0]
0\
0[
0Z
0Y
0X
0W
0V
0U
0T
0S
0R
0Q
0P
0O
0N
0M
0L
0K
0J
0I
0H
0G
0F
0E
0D
0C
0B
0A
0@
0?
0>
0=
0<
0;
0:
09
08
07
06
05
04
03
02
01
00
0/
0.
0-
0,
0+
0*
0)
0(
0'
0&
0%
xe
0f
1g
xh
1i
1j
1k
0l
0m
0n
0o
0p
0q
0r
0s
0t
0u
0v
0w
0x
0y
0z
0{
0|
0}
0~
0!!
0"!
0#!
0$!
0%!
0&!
0'!
0(!
0)!
0*!
0+!
0,!
0-!
0.!
0/!
00!
01!
02!
03!
04!
05!
06!
07!
08!
09!
0:!
0;!
0<!
0=!
0>!
0?!
0@!
0A!
0B!
0C!
0D!
0E!
0F!
0G!
0H!
0I!
0J!
0K!
0L!
0M!
0N!
0O!
0P!
1Q!
1R!
1S!
1T!
0U!
0V!
0W!
0X!
1Y!
0Z!
0[!
0\!
0]!
0^!
0_!
0`!
0a!
0b!
0c!
0d!
0e!
0f!
0g!
0h!
0i!
0j!
0k!
0l!
0m!
0n!
0o!
0p!
0q!
0r!
0s!
0t!
0u!
0v!
0w!
0x!
0y!
0z!
0{!
0|!
0}!
0~!
0!"
0""
0#"
0$"
0%"
0&"
0'"
0("
0)"
0*"
0+"
0,"
0-"
0."
0/"
00"
01"
02"
03"
04"
05"
06"
07"
08"
09"
0:"
0;"
0<"
0="
0>"
0?"
0@"
0A"
0B"
0C"
0D"
0E"
0F"
0G"
0H"
0I"
0J"
0K"
0L"
0M"
0N"
0O"
0P"
0Q"
0R"
0S"
0T"
0U"
0V"
0W"
0X"
0Y"
0Z"
0["
0\"
0]"
0^"
0_"
0`"
0a"
0b"
0c"
0d"
0e"
0f"
0g"
0h"
0i"
0j"
0k"
0l"
0m"
0n"
0o"
0p"
0q"
0r"
0s"
0t"
0u"
0v"
0w"
0x"
0y"
0z"
0{"
0|"
0}"
0~"
0!#
0"#
0##
0$#
0%#
0&#
0'#
0(#
0)#
0*#
0+#
0,#
0-#
$end
#5000
1!
1O!
1P!
0e
#10000
b1 $
0!
1l
0O!
0P!
1e
1g!
0Y!
1b!
0R!
#15000
1!
1O!
1P!
0e
#20000
0!
0O!
0P!
1e
#25000
1!
1O!
1P!
0e
#30000
0!
0O!
0P!
1e
#35000
1!
1O!
1P!
0e
#40000
0!
0O!
0P!
1e
#45000
1!
1O!
1P!
0e
#50000
0!
0O!
0P!
1e
#55000
1!
1O!
1P!
0e
#60000
0!
0O!
0P!
1e
#65000
1!
1O!
1P!
0e
#70000
0!
0O!
0P!
1e
#75000
1!
1O!
1P!
0e
#80000
0!
0O!
0P!
1e
#85000
1!
1O!
1P!
0e
#90000
0!
0O!
0P!
1e
#95000
1!
1O!
1P!
0e
#100000
0!
0O!
0P!
1e
#105000
1!
1O!
1P!
0e
#110000
0#
0!
0S!
0O!
0T!
0P!
1e
#115000
1!
1O!
1P!
0e
1c!
1q
1`
#120000
0!
0O!
0P!
1e
#125000
1!
1O!
1P!
0e
#130000
0!
0O!
0P!
1e
#135000
1!
1O!
1P!
0e
#140000
b11 "
b10 "
0!
0Q!
1d!
0O!
0P!
1e
1e!
#145000
1!
1O!
1P!
0e
1f!
1r
1_
#150000
0!
0O!
0P!
1e
#155000
1!
1O!
1P!
0e
#160000
0!
0O!
0P!
1e
#165000
1!
1O!
1P!
0e
#170000
0!
0O!
0P!
1e
#175000
1!
1O!
1P!
0e
#180000
0!
0O!
0P!
1e
#185000
1!
1O!
1P!
0e
#190000
0!
0O!
0P!
1e
#195000
1!
1O!
1P!
0e
#200000
0!
0O!
0P!
1e
#205000
1!
1O!
1P!
0e
#210000
0!
0O!
0P!
1e
#215000
1!
1O!
1P!
0e
#220000
0!
0O!
0P!
1e
#225000
1!
1O!
1P!
0e
#230000
0!
0O!
0P!
1e
#235000
1!
1O!
1P!
0e
#240000
0!
0O!
0P!
1e
#245000
1!
1O!
1P!
0e
#250000
0!
0O!
0P!
1e
#255000
1!
1O!
1P!
0e
#260000
0!
0O!
0P!
1e
#265000
1!
1O!
1P!
0e
#270000
0!
0O!
0P!
1e
#275000
1!
1O!
1P!
0e
#280000
0!
0O!
0P!
1e
#285000
1!
1O!
1P!
0e
#290000
0!
0O!
0P!
1e
#295000
1!
1O!
1P!
0e
#300000
0!
0O!
0P!
1e
#305000
1!
1O!
1P!
0e
#310000
0!
0O!
0P!
1e
#315000
1!
1O!
1P!
0e
#320000
0!
0O!
0P!
1e
#325000
1!
1O!
1P!
0e
#330000
0!
0O!
0P!
1e
#335000
1!
1O!
1P!
0e
#340000
0!
0O!
0P!
1e
#345000
1!
1O!
1P!
0e
#350000
0!
0O!
0P!
1e
#355000
1!
1O!
1P!
0e
#360000
0!
0O!
0P!
1e
#365000
1!
1O!
1P!
0e
#370000
b110 "
b100 "
0!
0d!
1\!
0O!
0P!
1e
1h!
#375000
1!
1O!
1P!
0e
1i!
1s
1^
#380000
0!
0O!
0P!
1e
#385000
1!
1O!
1P!
0e
#390000
0!
0O!
0P!
1e
#395000
1!
1O!
1P!
0e
#400000
0!
0O!
0P!
1e
#405000
1!
1O!
1P!
0e
#410000
0!
0O!
0P!
1e
#415000
1!
1O!
1P!
0e
#420000
0!
0O!
0P!
1e
#425000
1!
1O!
1P!
0e
#430000
0!
0O!
0P!
1e
#435000
1!
1O!
1P!
0e
#440000
0!
0O!
0P!
1e
#445000
1!
1O!
1P!
0e
#450000
0!
0O!
0P!
1e
#455000
1!
1O!
1P!
0e
#460000
0!
0O!
0P!
1e
#465000
1!
1O!
1P!
0e
#470000
0!
0O!
0P!
1e
#475000
1!
1O!
1P!
0e
#480000
0!
0O!
0P!
1e
#485000
1!
1O!
1P!
0e
#490000
0!
0O!
0P!
1e
#495000
1!
1O!
1P!
0e
#500000
0!
0O!
0P!
1e
#505000
1!
1O!
1P!
0e
#510000
b0 $
0!
0l
0O!
0P!
1e
0g!
1Y!
1]!
#515000
1!
1O!
1P!
0e
1^!
1o
1b
#520000
0!
0O!
0P!
1e
#525000
1!
1O!
1P!
0e
#530000
0!
0O!
0P!
1e
#535000
1!
1O!
1P!
0e
#540000
0!
0O!
0P!
1e
#545000
1!
1O!
1P!
0e
#550000
0!
0O!
0P!
1e
#555000
1!
1O!
1P!
0e
#560000
0!
0O!
0P!
1e
#565000
1!
1O!
1P!
0e
#570000
0!
0O!
0P!
1e
#575000
1!
1O!
1P!
0e
#580000
0!
0O!
0P!
1e
#585000
1!
1O!
1P!
0e
#590000
0!
0O!
0P!
1e
#595000
1!
1O!
1P!
0e
#600000
0!
0O!
0P!
1e
#605000
1!
1O!
1P!
0e
#610000
0!
0O!
0P!
1e
#615000
1!
1O!
1P!
0e
#620000
0!
0O!
0P!
1e
#625000
1!
1O!
1P!
0e
#630000
0!
0O!
0P!
1e
#635000
1!
1O!
1P!
0e
#640000
0!
0O!
0P!
1e
#645000
1!
1O!
1P!
0e
#650000
0!
0O!
0P!
1e
#655000
1!
1O!
1P!
0e
#660000
0!
0O!
0P!
1e
#665000
1!
1O!
1P!
0e
#670000
0!
0O!
0P!
1e
#675000
1!
1O!
1P!
0e
#680000
0!
0O!
0P!
1e
#685000
1!
1O!
1P!
0e
#690000
0!
0O!
0P!
1e
#695000
1!
1O!
1P!
0e
#700000
0!
0O!
0P!
1e
#705000
1!
1O!
1P!
0e
#710000
0!
0O!
0P!
1e
#715000
1!
1O!
1P!
0e
#720000
0!
0O!
0P!
1e
#725000
1!
1O!
1P!
0e
#730000
0!
0O!
0P!
1e
#735000
1!
1O!
1P!
0e
#740000
0!
0O!
0P!
1e
#745000
1!
1O!
1P!
0e
#750000
0!
0O!
0P!
1e
#755000
1!
1O!
1P!
0e
#760000
0!
0O!
0P!
1e
#765000
1!
1O!
1P!
0e
#770000
0!
0O!
0P!
1e
#775000
1!
1O!
1P!
0e
#780000
0!
0O!
0P!
1e
#785000
1!
1O!
1P!
0e
#790000
0!
0O!
0P!
1e
#795000
1!
1O!
1P!
0e
#800000
0!
0O!
0P!
1e
#805000
1!
1O!
1P!
0e
#810000
0!
0O!
0P!
1e
#815000
1!
1O!
1P!
0e
#820000
0!
0O!
0P!
1e
#825000
1!
1O!
1P!
0e
#830000
0!
0O!
0P!
1e
#835000
1!
1O!
1P!
0e
#840000
0!
0O!
0P!
1e
#845000
1!
1O!
1P!
0e
#850000
0!
0O!
0P!
1e
#855000
1!
1O!
1P!
0e
#860000
0!
0O!
0P!
1e
#865000
1!
1O!
1P!
0e
#870000
0!
0O!
0P!
1e
#875000
1!
1O!
1P!
0e
#880000
0!
0O!
0P!
1e
#885000
1!
1O!
1P!
0e
#890000
0!
0O!
0P!
1e
#895000
1!
1O!
1P!
0e
#900000
0!
0O!
0P!
1e
#905000
1!
1O!
1P!
0e
#910000
0!
0O!
0P!
1e
#915000
1!
1O!
1P!
0e
#920000
0!
0O!
0P!
1e
#925000
1!
1O!
1P!
0e
#930000
0!
0O!
0P!
1e
#935000
1!
1O!
1P!
0e
#940000
0!
0O!
0P!
1e
#945000
1!
1O!
1P!
0e
#950000
0!
0O!
0P!
1e
#955000
1!
1O!
1P!
0e
#960000
0!
0O!
0P!
1e
#965000
1!
1O!
1P!
0e
#970000
0!
0O!
0P!
1e
#975000
1!
1O!
1P!
0e
#980000
0!
0O!
0P!
1e
#985000
1!
1O!
1P!
0e
#990000
0!
0O!
0P!
1e
#995000
1!
1O!
1P!
0e
